{
  "content": [
    {
      "createdAt": "2022-07-12T11:07:38.776241",
      "updatedAt": "2022-08-16T06:53:23.905401",
      "deletedAt": null,
      "createdBy": null,
      "updatedBy": 3,
      "deletedBy": null,
      "id": 1,
      "name": "Pindias",
      "location": "Văn Khê, Khu đô thị Văn Khê, Hà Đông, Hà Nội, Việt Nam",
      "website": "http://vn.pindias.com/",
      "phone": "09565626454",
      "thumbnail": "https://myaccount.metawayholdings.com/assets/metaway-logo-default.9875822f.png",
      "description": "Pindias là siêu ứng dụng kết nối, quản lý, giao dịch tài sản số hóa được ứng dụng trên công nghệ blockchain cho phép số hóa các tài sản bất động sản vật lý thành tài sản số thông qua các hợp đồng thông minh (smart contracts).",
      "charteredCapital": 5000000000000,
      "createdYear": "2022-07-12T04:07:11.817",
      "field": "RENT",
      "status": "NORMAL"
    },
    {
      "createdAt": "2022-07-15T07:20:33.244624",
      "updatedAt": "2022-08-26T10:28:11.817507",
      "deletedAt": null,
      "createdBy": null,
      "updatedBy": 3,
      "deletedBy": null,
      "id": 3,
      "name": "Nakamoto Nguyen",
      "location": "Ha noi, Viet Nam",
      "website": "nakamoto.co.jp",
      "phone": "01234567891",
      "thumbnail": "https://myaccount.metawayholdings.com/assets/metaway-logo-default.9875822f.png",
      "description": "Nha dau tu lam tien",
      "charteredCapital": 1000000000,
      "createdYear": "2022-07-14T00:00:00",
      "field": "RENT",
      "status": "NORMAL"
    },
    {
      "createdAt": "2022-08-09T10:34:09.276303",
      "updatedAt": "2022-08-09T10:34:09.274567",
      "deletedAt": null,
      "createdBy": 123,
      "updatedBy": null,
      "deletedBy": null,
      "id": 12,
      "name": "Công ty CP Xây dựng số 3 Hà Nội",
      "location": "Tầng 6, số 18 Lý Thường Kiệt, Quận Hoàn Kiếm, Hà Nội",
      "website": "http://handico.com.vn",
      "phone": "0438214032",
      "thumbnail": "https://myaccount.metawayholdings.com/assets/metaway-logo-default.9875822f.png",
      "description": " Công ty Xây dựng số 3 Hà Nội (HANCO3) được thành lập ngày 15/6/1976 theo Quyết định số 736/QĐ-UB và đã được chuyển đổi thành Công ty CP Xây dựng số 3 Hà Nội theo Quyết định số 1165/QĐ-UBND ngày 30/3/2007 của UBND Thành phố Hà Nội. Hơn 30 năm xây dựng,  phát triển, HANCO3 là một trong những đơn vị xây dựng hàng đầu của Thành phố và của Tổng công ty Đầu tư và Phát triển nhà Hà Nội, nhiều năm liền đạt thành tích cao về Sản xuất kinh doanh, đạt được các danh hiệu thi đua xuất sắc của ngành xây dựng Hà Nội.",
      "charteredCapital": 10000000,
      "createdYear": "1976-08-01T10:33:29.895",
      "field": "SELL",
      "status": "NORMAL"
    },
    {
      "createdAt": "2022-08-09T11:57:42.17594",
      "updatedAt": "2022-08-09T11:57:42.170231",
      "deletedAt": null,
      "createdBy": 123,
      "updatedBy": null,
      "deletedBy": null,
      "id": 13,
      "name": "Công ty CP Bất động sản Hoa Anh Đào",
      "location": "Số 47 Vũ Trọng Phụng, Phường Thanh Xuân Trung, Quận Thanh Xuân, Hà Nội",
      "website": "http://www.alphanam.com.vn",
      "phone": "0435587979",
      "thumbnail": "https://myaccount.metawayholdings.com/assets/metaway-logo-default.9875822f.png",
      "description": "Công ty CP Bất động sản Hoa Anh Đào",
      "charteredCapital": 1000,
      "createdYear": "2009-08-01T11:57:02.128",
      "field": "SELL",
      "status": "NORMAL"
    },
    {
      "createdAt": "2022-08-09T13:21:50.800788",
      "updatedAt": "2022-08-09T13:21:50.79521",
      "deletedAt": null,
      "createdBy": 123,
      "updatedBy": null,
      "deletedBy": null,
      "id": 14,
      "name": "Công ty CP Sao Ánh Dương – Tập đoàn Sunshine Group",
      "location": "Tầng 43 tòa Keangnam Landmark 72, Đường Phạm Hùng, Quận Nam Từ Liêm, Hà Nội",
      "website": "http://sunshinegroup.vn",
      "phone": "0473039999",
      "thumbnail": "https://myaccount.metawayholdings.com/assets/metaway-logo-default.9875822f.png",
      "description": " Công ty CP Sao Ánh Dương – Tập đoàn Sunshine Group là nhà đầu tư kinh doanh địa ốc hàng đầu Việt Nam ở phân khúc trung và cao cấp. Với triết lý kinh doanh Nói thực – Làm thực – Tạo nên giá trị thực, Sunshine Group cam kết mang đến cho khách hàng sự yên tâm hoàn toàn về chất lượng thi công và xây dựng, cũng như tiến độ bàn giao của các dự án bất động sản.",
      "charteredCapital": 100000,
      "createdYear": "2016-08-01T13:21:22.013",
      "field": "SELL",
      "status": "NORMAL"
    },
    {
      "createdAt": "2022-08-09T13:24:14.811667",
      "updatedAt": "2022-08-09T13:24:14.810032",
      "deletedAt": null,
      "createdBy": 123,
      "updatedBy": null,
      "deletedBy": null,
      "id": 15,
      "name": "Công ty CP Sao Ánh Dương – Tập đoàn Sunshine Group",
      "location": "Tầng 6, số 18 Lý Thường Kiệt, Quận Hoàn Kiếm, Hà Nội",
      "website": "http://handico.com.vn",
      "phone": "0438214032",
      "thumbnail": "https://myaccount.metawayholdings.com/assets/metaway-logo-default.9875822f.png",
      "description": " Công ty CP Sao Ánh Dương – Tập đoàn Sunshine Group là nhà đầu tư kinh doanh địa ốc hàng đầu Việt Nam ở phân khúc trung và cao cấp. Với triết lý kinh doanh Nói thực – Làm thực – Tạo nên giá trị thực, Sunshine Group cam kết mang đến cho khách hàng sự yên tâm hoàn toàn về chất lượng thi công và xây dựng, cũng như tiến độ bàn giao của các dự án bất động sản.",
      "charteredCapital": 10000000,
      "createdYear": "2016-08-01T13:23:55.465",
      "field": "SELL",
      "status": "NORMAL"
    },
    {
      "createdAt": "2022-08-10T02:15:18.85692",
      "updatedAt": "2022-08-10T02:15:18.850014",
      "deletedAt": null,
      "createdBy": 123,
      "updatedBy": null,
      "deletedBy": null,
      "id": 16,
      "name": "Công ty CP Sovico",
      "location": "Phòng 1102, Tầng11, Tòa nhà Pacific Place 83B Lý Thường Kiệt, Quận Hoàn Kiếm, Hà Nội",
      "website": "http://www.sovicoholdings.com",
      "phone": "0439422266",
      "thumbnail": "https://myaccount.metawayholdings.com/assets/metaway-logo-default.9875822f.png",
      "description": " Được phôi thai từ cuối thập kỷ 80 của thế kỷ trước tại Liên bang Nga, SOVICO Holdings khởi đầu là một doanh nghiệp kinh doanh hàng tiêu dùng, nhu yếu phẩm, hàng thực phẩm, điện tử, may mặc... Giai đoạn giao thời của nước Nga đã tạo nên cơ hội cho những doanh nhân nhạy bén với thời cuộc, tận dụng cơ hội để nhanh chóng lớn mạnh.  SOVICO Holdings là một trong sáu thành viên sáng lập Hiệp hội doanh nghiệp Việt Nam tại Liên bang Nga - nhằm tập hợp cộng đồng doanh nghiệp của người Việt trên đất bạn gắn kết cùng nhau trưởng thành.",
      "charteredCapital": 10000000,
      "createdYear": "1986-08-01T02:14:33.091",
      "field": "SELL",
      "status": "NORMAL"
    },
    {
      "createdAt": "2022-08-11T03:35:26.99159",
      "updatedAt": "2022-08-11T03:35:26.98629",
      "deletedAt": null,
      "createdBy": 123,
      "updatedBy": null,
      "deletedBy": null,
      "id": 17,
      "name": "Công ty CP Dịch vụ Thương mại và Xây dựng Địa ốc Kim Oanh",
      "location": "Lô J53, Đường NE8, Mỹ Phước III, Huyện Bến Cát, Tinh Bình Dương",
      "website": "http://diaockimoanh.com.vn",
      "phone": "06503554999",
      "thumbnail": "https://myaccount.metawayholdings.com/assets/metaway-logo-default.9875822f.png",
      "description": " Với mục tiêu trở thành một Công ty đầu tư và phát triển Bất động sản hàng đầu Việt Nam, Công ty đã từng bước tái cơ cấu bộ máy Công ty nhằm đáp ứng kịp thời những nhu cầu gắt gao của thị trường bằng cách tập trung phát triển nguồn nhân lực, cải tiến quy trình làm việc, chiêu mộ những người có tâm huyết, chuyên môn và trình độ học vấn cao, chuyên nghiệp hóa quy trình bán hàng, nâng cao chất lượng dịch vụ…  Bằng nỗ lực không ngừng của một tập thể tâm huyết và tài năng, thương hiệu Công ty ngày càng lan tỏa mạnh mẽ trên thị trường. Thông qua uy tín của mình, Công ty đã thu hút được đông đảo khách hàng và tạo dựng thương hiệu cho các chủ đầu tư. Công ty dần khẳng định là một Công ty môi giới bất động sản hàng đầu được các chủ đầu tư, đối tác và khách hàng tin cậy. Uy tín chính là một lợi thế cạnh tranh của Công ty so với các Công ty khác hoạt động cùng lĩnh vực.",
      "charteredCapital": 10000000,
      "createdYear": "2003-08-01T03:34:41.463",
      "field": "SELL",
      "status": "NORMAL"
    },
    {
      "createdAt": "2022-08-12T08:53:31.825531",
      "updatedAt": "2022-08-12T08:53:31.819588",
      "deletedAt": null,
      "createdBy": 123,
      "updatedBy": null,
      "deletedBy": null,
      "id": 19,
      "name": "Công ty Cổ phần Thành Đông Ninh Thuận",
      "location": "Lô TM09 Đường Đặng Quang Cầm, KĐT Biển Bình Sơn - Ninh Chữ (Khu K2), phường Mỹ Bình, TP. Phan Rang - Tháp Chàm, Ninh Thuận",
      "website": "http://www.thanhdongninhthuan.com/",
      "phone": "02593890999",
      "thumbnail": "https://myaccount.metawayholdings.com/assets/metaway-logo-default.9875822f.png",
      "description": "Sự ra đời của Công ty Cổ phần Thành Đông Ninh Thuận là sự chia tách từ Công ty Cổ Phần Đầu tư Bất động sản Thành Đông với các Cổ đông.  Công ty Cổ Phần Đầu tư Bất động sản Thành Đông làm Chủ đầu tư Dự án Công viên biển Bình Sơn từ năm 2010 và Dự án Khu đô thị mới Đông Bắc (Khu K1), TP. Phan Rang-Tháp Chàm từ năm 2011. Để thuận tiện cho việc quản lý, điều hành, tháng 10/2013 Lãnh đạo Công ty Cổ Phần Đầu tư Bất động sản Thành Đông đã quyết định tách Dự án Khu đô thị mới Đông Bắc (Khu K1) ra để  giao cho Công ty Cổ Phần Thành Đông Ninh Thuận quản lý. Do đó Công ty Cổ Phần Thành Đông Ninh Thuận được ra đời theo Giấy chứng nhận Đăng ký kinh doanh số: 4500569345, đăng ký lần đầu ngày 11/10/2013 và thay đổi lần 2 ngày 25/07/2014, do Sở Kế hoạch và Đầu tư Tỉnh Ninh Thuận cấp.",
      "charteredCapital": 10000000,
      "createdYear": "2013-08-01T08:51:49.836",
      "field": "SELL",
      "status": "NORMAL"
    },
    {
      "createdAt": "2022-08-16T04:36:35.314216",
      "updatedAt": "2022-08-16T11:36:35.295584",
      "deletedAt": null,
      "createdBy": 123,
      "updatedBy": null,
      "deletedBy": null,
      "id": 21,
      "name": "Công ty TNHH Gotec Việt Nam",
      "location": "Số 155 Hai Bà Trưng, Phường 6, Quận 3, Thành phố Hồ Chí Minh Website:",
      "website": "https://v2.pindias.com/",
      "phone": "0862907668",
      "thumbnail": "https://imagedelivery.net/KvFcUzLL2k6Q3_ROU5d8cw/dcd5f205-a32b-4653-31b9-bb12a9c2b400/public",
      "description": " Gotec Việt Nam đã nhanh chóng xây dựng vị thế riêng trên thị trường và trở thành nhà cung cấp, phân phối nhiều loại hàng hóa khác nhau nguồn từ trong nước và trên thế giới để đáp ứng tốt nhất nhu cầu của khách hàng.  Dựa trên sự tôn trọng nguyên tắc hợp tác, cùng đội ngũ nhân viên trình độ cao, bề dày kinh nghiệm và luôn nhiệt tình trong công việc, chúng tôi luôn mang đến cho khách hàng chất lượng hàng hóa tốt nhất và cùng các giá trị hậu mãi, nâng cao đi kèm. Sự tin cậy của khách hàng, của nhà cung cấp và các đối tác chiến lược chính là thành công lớn nhất của Công ty chúng tôi.",
      "charteredCapital": 10000000,
      "createdYear": "2012-08-01T04:32:44.227",
      "field": "SELL",
      "status": "NORMAL"
    }
  ],
  "pageable": {
    "sort": {
      "unsorted": true,
      "sorted": false,
      "empty": true
    },
    "pageNumber": 0,
    "pageSize": 10,
    "offset": 0,
    "paged": true,
    "unpaged": false
  },
  "totalElements": 11,
  "last": false,
  "totalPages": 2,
  "first": true,
  "sort": {
    "unsorted": true,
    "sorted": false,
    "empty": true
  },
  "numberOfElements": 10,
  "size": 10,
  "number": 0,
  "empty": false
}
